07.02.2016 19:13:07 [Thread-11] INFO  by.seleznev.auction.entity.Participant  - Participant: 1 - has been started and interested in lots: [3, 4, 6, 7, 8, 10]
07.02.2016 19:13:07 [Thread-19] INFO  by.seleznev.auction.entity.Participant  - Participant: 9 - has been started and interested in lots: [2, 6]
07.02.2016 19:13:07 [Thread-18] INFO  by.seleznev.auction.entity.Participant  - Participant: 8 - has been started and interested in lots: [3, 5, 10]
07.02.2016 19:13:07 [Thread-16] INFO  by.seleznev.auction.entity.Participant  - Participant: 6 - has been started and interested in lots: [1, 2, 3, 4, 5, 7, 10]
07.02.2016 19:13:07 [Thread-14] INFO  by.seleznev.auction.entity.Participant  - Participant: 4 - has been started and interested in lots: [7]
07.02.2016 19:13:07 [Thread-13] INFO  by.seleznev.auction.entity.Participant  - Participant: 3 - has been started and interested in lots: [2, 5, 6, 8, 9, 10]
07.02.2016 19:13:07 [Thread-20] INFO  by.seleznev.auction.entity.Participant  - Participant: 10 - has been started and interested in lots: [3, 5]
07.02.2016 19:13:07 [Thread-22] INFO  by.seleznev.auction.entity.Participant  - Participant: 12 - has been started and interested in lots: [1, 2, 6, 7, 9]
07.02.2016 19:13:07 [Thread-24] INFO  by.seleznev.auction.entity.Participant  - Participant: 14 - has been started and interested in lots: [3, 4, 5, 7, 8, 10]
07.02.2016 19:13:07 [Thread-17] INFO  by.seleznev.auction.entity.Participant  - Participant: 7 - has been started and interested in lots: [2, 4, 7, 8, 9]
07.02.2016 19:13:07 [Thread-15] INFO  by.seleznev.auction.entity.Participant  - Participant: 5 - has been started and interested in lots: [1, 3, 5, 8, 9, 10]
07.02.2016 19:13:07 [Thread-12] INFO  by.seleznev.auction.entity.Participant  - Participant: 2 - has been started and interested in lots: [2, 3, 5, 6, 7, 8]
07.02.2016 19:13:07 [main] INFO  by.seleznev.auction.main.AuctionRunner  - Auction has been started
07.02.2016 19:13:07 [Thread-0] INFO  by.seleznev.auction.entity.Auction  - Round 1 start
07.02.2016 19:13:07 [Thread-30] INFO  by.seleznev.auction.entity.Participant  - Participant: 20 - has been started and interested in lots: [1, 2, 3, 4, 5, 7, 8]
07.02.2016 19:13:07 [Thread-27] INFO  by.seleznev.auction.entity.Participant  - Participant: 17 - has been started and interested in lots: [6]
07.02.2016 19:13:07 [Thread-26] INFO  by.seleznev.auction.entity.Participant  - Participant: 16 - has been started and interested in lots: [2, 4, 6, 8, 10]
07.02.2016 19:13:07 [Thread-23] INFO  by.seleznev.auction.entity.Participant  - Participant: 13 - has been started and interested in lots: [9]
07.02.2016 19:13:07 [Thread-21] INFO  by.seleznev.auction.entity.Participant  - Participant: 11 - has been started and interested in lots: [6, 8]
07.02.2016 19:13:07 [Thread-19] INFO  by.seleznev.auction.entity.Participant  - Participant 9 isn't interested in lot
07.02.2016 19:13:07 [Thread-19] INFO  by.seleznev.auction.entity.Participant  - Participant 9 stop bidding and awaiting the results of the round
07.02.2016 19:13:07 [Thread-11] INFO  by.seleznev.auction.entity.Participant  - Participant 1 isn't interested in lot
07.02.2016 19:13:07 [Thread-11] INFO  by.seleznev.auction.entity.Participant  - Participant 1 stop bidding and awaiting the results of the round
07.02.2016 19:13:07 [Thread-18] INFO  by.seleznev.auction.entity.Participant  - Participant 8 isn't interested in lot
07.02.2016 19:13:07 [Thread-18] INFO  by.seleznev.auction.entity.Participant  - Participant 8 stop bidding and awaiting the results of the round
07.02.2016 19:13:07 [Thread-14] INFO  by.seleznev.auction.entity.Participant  - Participant 4 isn't interested in lot
07.02.2016 19:13:07 [Thread-14] INFO  by.seleznev.auction.entity.Participant  - Participant 4 stop bidding and awaiting the results of the round
07.02.2016 19:13:07 [Thread-12] INFO  by.seleznev.auction.entity.Participant  - Participant 2 isn't interested in lot
07.02.2016 19:13:07 [Thread-12] INFO  by.seleznev.auction.entity.Participant  - Participant 2 stop bidding and awaiting the results of the round
07.02.2016 19:13:07 [Thread-13] INFO  by.seleznev.auction.entity.Participant  - Participant 3 isn't interested in lot
07.02.2016 19:13:07 [Thread-13] INFO  by.seleznev.auction.entity.Participant  - Participant 3 stop bidding and awaiting the results of the round
07.02.2016 19:13:07 [Thread-29] INFO  by.seleznev.auction.entity.Participant  - Participant: 19 - has been started and interested in lots: [1, 3, 4, 8, 9]
07.02.2016 19:13:07 [Thread-28] INFO  by.seleznev.auction.entity.Participant  - Participant: 18 - has been started and interested in lots: [1, 2, 4, 5, 9, 10]
07.02.2016 19:13:07 [Thread-25] INFO  by.seleznev.auction.entity.Participant  - Participant: 15 - has been started and interested in lots: [1, 3, 6, 8]
07.02.2016 19:13:07 [Thread-23] INFO  by.seleznev.auction.entity.Participant  - Participant 13 isn't interested in lot
07.02.2016 19:13:07 [Thread-24] INFO  by.seleznev.auction.entity.Participant  - Participant 14 isn't interested in lot
07.02.2016 19:13:07 [Thread-21] INFO  by.seleznev.auction.entity.Participant  - Participant 11 isn't interested in lot
07.02.2016 19:13:07 [Thread-20] INFO  by.seleznev.auction.entity.Participant  - Participant 10 isn't interested in lot
07.02.2016 19:13:07 [Thread-17] INFO  by.seleznev.auction.entity.Participant  - Participant 7 isn't interested in lot
07.02.2016 19:13:07 [Thread-20] INFO  by.seleznev.auction.entity.Participant  - Participant 10 stop bidding and awaiting the results of the round
07.02.2016 19:13:07 [Thread-21] INFO  by.seleznev.auction.entity.Participant  - Participant 11 stop bidding and awaiting the results of the round
07.02.2016 19:13:07 [Thread-24] INFO  by.seleznev.auction.entity.Participant  - Participant 14 stop bidding and awaiting the results of the round
07.02.2016 19:13:07 [Thread-27] INFO  by.seleznev.auction.entity.Participant  - Participant 17 isn't interested in lot
07.02.2016 19:13:07 [Thread-23] INFO  by.seleznev.auction.entity.Participant  - Participant 13 stop bidding and awaiting the results of the round
07.02.2016 19:13:07 [Thread-26] INFO  by.seleznev.auction.entity.Participant  - Participant 16 isn't interested in lot
07.02.2016 19:13:07 [Thread-27] INFO  by.seleznev.auction.entity.Participant  - Participant 17 stop bidding and awaiting the results of the round
07.02.2016 19:13:07 [Thread-17] INFO  by.seleznev.auction.entity.Participant  - Participant 7 stop bidding and awaiting the results of the round
07.02.2016 19:13:07 [Thread-26] INFO  by.seleznev.auction.entity.Participant  - Participant 16 stop bidding and awaiting the results of the round
07.02.2016 19:13:12 [Thread-1] INFO  by.seleznev.auction.entity.RoundAuction  - Bidding time is over
07.02.2016 19:13:12 [Thread-22] INFO  by.seleznev.auction.entity.Participant  - Participant 12 stop bidding and awaiting the results of the round
07.02.2016 19:13:13 [Thread-25] INFO  by.seleznev.auction.entity.Participant  - Participant 15 stop bidding and awaiting the results of the round
07.02.2016 19:13:13 [Thread-16] INFO  by.seleznev.auction.entity.Participant  - Participant 6 stop bidding and awaiting the results of the round
07.02.2016 19:13:13 [Thread-30] INFO  by.seleznev.auction.entity.Participant  - Participant 20 stop bidding and awaiting the results of the round
07.02.2016 19:13:13 [Thread-28] INFO  by.seleznev.auction.entity.Participant  - Participant 18 stop bidding and awaiting the results of the round
07.02.2016 19:13:13 [Thread-15] INFO  by.seleznev.auction.entity.Participant  - Participant 5 stop bidding and awaiting the results of the round
07.02.2016 19:13:13 [Thread-29] INFO  by.seleznev.auction.entity.Participant  - Participant 19 stop bidding and awaiting the results of the round
07.02.2016 19:13:13 [Thread-29] INFO  by.seleznev.auction.report.ReportAuction  - Round 1: Participant 19 has won!
07.02.2016 19:13:13 [Thread-29] INFO  by.seleznev.auction.report.ReportAuction  - Round 1 finish
07.02.2016 19:13:13 [Thread-0] INFO  by.seleznev.auction.entity.Auction  - Round 2 start
07.02.2016 19:13:13 [Thread-19] INFO  by.seleznev.auction.entity.Participant  - Participant: 9 - has been started and interested in lots: [2, 6]
07.02.2016 19:13:13 [Thread-11] INFO  by.seleznev.auction.entity.Participant  - Participant: 1 - has been started and interested in lots: [3, 4, 6, 7, 8, 10]
07.02.2016 19:13:13 [Thread-14] INFO  by.seleznev.auction.entity.Participant  - Participant: 4 - has been started and interested in lots: [7]
07.02.2016 19:13:13 [Thread-12] INFO  by.seleznev.auction.entity.Participant  - Participant: 2 - has been started and interested in lots: [2, 3, 5, 6, 7, 8]
07.02.2016 19:13:13 [Thread-29] INFO  by.seleznev.auction.entity.Participant  - Participant: 19 - has been started and interested in lots: [1, 3, 4, 8, 9]
07.02.2016 19:13:13 [Thread-13] INFO  by.seleznev.auction.entity.Participant  - Participant: 3 - has been started and interested in lots: [2, 5, 6, 8, 9, 10]
07.02.2016 19:13:13 [Thread-20] INFO  by.seleznev.auction.entity.Participant  - Participant: 10 - has been started and interested in lots: [3, 5]
07.02.2016 19:13:13 [Thread-21] INFO  by.seleznev.auction.entity.Participant  - Participant: 11 - has been started and interested in lots: [6, 8]
07.02.2016 19:13:13 [Thread-24] INFO  by.seleznev.auction.entity.Participant  - Participant: 14 - has been started and interested in lots: [3, 4, 5, 7, 8, 10]
07.02.2016 19:13:13 [Thread-18] INFO  by.seleznev.auction.entity.Participant  - Participant: 8 - has been started and interested in lots: [3, 5, 10]
07.02.2016 19:13:13 [Thread-11] INFO  by.seleznev.auction.entity.Participant  - Participant 1 isn't interested in lot
07.02.2016 19:13:13 [Thread-11] INFO  by.seleznev.auction.entity.Participant  - Participant 1 stop bidding and awaiting the results of the round
07.02.2016 19:13:13 [Thread-14] INFO  by.seleznev.auction.entity.Participant  - Participant 4 isn't interested in lot
07.02.2016 19:13:13 [Thread-27] INFO  by.seleznev.auction.entity.Participant  - Participant: 17 - has been started and interested in lots: [6]
07.02.2016 19:13:13 [Thread-23] INFO  by.seleznev.auction.entity.Participant  - Participant: 13 - has been started and interested in lots: [9]
07.02.2016 19:13:13 [Thread-14] INFO  by.seleznev.auction.entity.Participant  - Participant 4 stop bidding and awaiting the results of the round
07.02.2016 19:13:13 [Thread-17] INFO  by.seleznev.auction.entity.Participant  - Participant: 7 - has been started and interested in lots: [2, 4, 7, 8, 9]
07.02.2016 19:13:13 [Thread-26] INFO  by.seleznev.auction.entity.Participant  - Participant: 16 - has been started and interested in lots: [2, 4, 6, 8, 10]
07.02.2016 19:13:13 [Thread-22] INFO  by.seleznev.auction.entity.Participant  - Participant: 12 - has been started and interested in lots: [1, 2, 6, 7, 9]
07.02.2016 19:13:13 [Thread-25] INFO  by.seleznev.auction.entity.Participant  - Participant: 15 - has been started and interested in lots: [1, 3, 6, 8]
07.02.2016 19:13:13 [Thread-28] INFO  by.seleznev.auction.entity.Participant  - Participant: 18 - has been started and interested in lots: [1, 2, 4, 5, 9, 10]
07.02.2016 19:13:13 [Thread-30] INFO  by.seleznev.auction.entity.Participant  - Participant: 20 - has been started and interested in lots: [1, 2, 3, 4, 5, 7, 8]
07.02.2016 19:13:13 [Thread-16] INFO  by.seleznev.auction.entity.Participant  - Participant: 6 - has been started and interested in lots: [1, 2, 3, 4, 5, 7, 10]
07.02.2016 19:13:13 [Thread-15] INFO  by.seleznev.auction.entity.Participant  - Participant: 5 - has been started and interested in lots: [1, 3, 5, 8, 9, 10]
07.02.2016 19:13:13 [Thread-20] INFO  by.seleznev.auction.entity.Participant  - Participant 10 isn't interested in lot
07.02.2016 19:13:13 [Thread-20] INFO  by.seleznev.auction.entity.Participant  - Participant 10 stop bidding and awaiting the results of the round
07.02.2016 19:13:13 [Thread-24] INFO  by.seleznev.auction.entity.Participant  - Participant 14 isn't interested in lot
07.02.2016 19:13:13 [Thread-24] INFO  by.seleznev.auction.entity.Participant  - Participant 14 stop bidding and awaiting the results of the round
07.02.2016 19:13:13 [Thread-18] INFO  by.seleznev.auction.entity.Participant  - Participant 8 isn't interested in lot
07.02.2016 19:13:13 [Thread-18] INFO  by.seleznev.auction.entity.Participant  - Participant 8 stop bidding and awaiting the results of the round
07.02.2016 19:13:13 [Thread-15] INFO  by.seleznev.auction.entity.Participant  - Participant 5 isn't interested in lot
07.02.2016 19:13:13 [Thread-27] INFO  by.seleznev.auction.entity.Participant  - Participant 17 isn't interested in lot
07.02.2016 19:13:13 [Thread-27] INFO  by.seleznev.auction.entity.Participant  - Participant 17 stop bidding and awaiting the results of the round
07.02.2016 19:13:13 [Thread-29] INFO  by.seleznev.auction.entity.Participant  - Participant 19 isn't interested in lot
07.02.2016 19:13:13 [Thread-29] INFO  by.seleznev.auction.entity.Participant  - Participant 19 stop bidding and awaiting the results of the round
07.02.2016 19:13:13 [Thread-25] INFO  by.seleznev.auction.entity.Participant  - Participant 15 isn't interested in lot
07.02.2016 19:13:13 [Thread-25] INFO  by.seleznev.auction.entity.Participant  - Participant 15 stop bidding and awaiting the results of the round
07.02.2016 19:13:13 [Thread-21] INFO  by.seleznev.auction.entity.Participant  - Participant 11 isn't interested in lot
07.02.2016 19:13:13 [Thread-21] INFO  by.seleznev.auction.entity.Participant  - Participant 11 stop bidding and awaiting the results of the round
07.02.2016 19:13:13 [Thread-23] INFO  by.seleznev.auction.entity.Participant  - Participant 13 isn't interested in lot
07.02.2016 19:13:13 [Thread-23] INFO  by.seleznev.auction.entity.Participant  - Participant 13 stop bidding and awaiting the results of the round
07.02.2016 19:13:13 [Thread-15] INFO  by.seleznev.auction.entity.Participant  - Participant 5 stop bidding and awaiting the results of the round
07.02.2016 19:13:18 [Thread-2] INFO  by.seleznev.auction.entity.RoundAuction  - Bidding time is over
07.02.2016 19:13:18 [Thread-13] INFO  by.seleznev.auction.entity.Participant  - Participant 3 stop bidding and awaiting the results of the round
07.02.2016 19:13:19 [Thread-22] INFO  by.seleznev.auction.entity.Participant  - Participant 12 stop bidding and awaiting the results of the round
07.02.2016 19:13:19 [Thread-12] INFO  by.seleznev.auction.entity.Participant  - Participant 2 stop bidding and awaiting the results of the round
07.02.2016 19:13:19 [Thread-28] INFO  by.seleznev.auction.entity.Participant  - Participant 18 stop bidding and awaiting the results of the round
07.02.2016 19:13:19 [Thread-30] INFO  by.seleznev.auction.entity.Participant  - Participant 20 stop bidding and awaiting the results of the round
07.02.2016 19:13:19 [Thread-26] INFO  by.seleznev.auction.entity.Participant  - Participant 16 stop bidding and awaiting the results of the round
07.02.2016 19:13:19 [Thread-16] INFO  by.seleznev.auction.entity.Participant  - Participant 6 stop bidding and awaiting the results of the round
07.02.2016 19:13:19 [Thread-19] INFO  by.seleznev.auction.entity.Participant  - Participant 9 stop bidding and awaiting the results of the round
07.02.2016 19:13:19 [Thread-17] INFO  by.seleznev.auction.entity.Participant  - Participant 7 stop bidding and awaiting the results of the round
07.02.2016 19:13:19 [Thread-17] INFO  by.seleznev.auction.report.ReportAuction  - Round 2: Participant 16 has won!
07.02.2016 19:13:19 [Thread-17] INFO  by.seleznev.auction.report.ReportAuction  - Round 2 finish
07.02.2016 19:13:19 [Thread-0] INFO  by.seleznev.auction.entity.Auction  - Round 3 start
07.02.2016 19:13:19 [Thread-11] INFO  by.seleznev.auction.entity.Participant  - Participant: 1 - has been started and interested in lots: [3, 4, 6, 7, 8, 10]
07.02.2016 19:13:19 [Thread-24] INFO  by.seleznev.auction.entity.Participant  - Participant: 14 - has been started and interested in lots: [3, 4, 5, 7, 8, 10]
07.02.2016 19:13:19 [Thread-20] INFO  by.seleznev.auction.entity.Participant  - Participant: 10 - has been started and interested in lots: [3, 5]
07.02.2016 19:13:19 [Thread-18] INFO  by.seleznev.auction.entity.Participant  - Participant: 8 - has been started and interested in lots: [3, 5, 10]
07.02.2016 19:13:19 [Thread-29] INFO  by.seleznev.auction.entity.Participant  - Participant: 19 - has been started and interested in lots: [1, 3, 4, 8, 9]
07.02.2016 19:13:19 [Thread-25] INFO  by.seleznev.auction.entity.Participant  - Participant: 15 - has been started and interested in lots: [1, 3, 6, 8]
07.02.2016 19:13:19 [Thread-21] INFO  by.seleznev.auction.entity.Participant  - Participant: 11 - has been started and interested in lots: [6, 8]
07.02.2016 19:13:19 [Thread-13] INFO  by.seleznev.auction.entity.Participant  - Participant: 3 - has been started and interested in lots: [2, 5, 6, 8, 9, 10]
07.02.2016 19:13:19 [Thread-14] INFO  by.seleznev.auction.entity.Participant  - Participant: 4 - has been started and interested in lots: [7]
07.02.2016 19:13:19 [Thread-17] INFO  by.seleznev.auction.entity.Participant  - Participant: 7 - has been started and interested in lots: [2, 4, 7, 8, 9]
07.02.2016 19:13:19 [Thread-15] INFO  by.seleznev.auction.entity.Participant  - Participant: 5 - has been started and interested in lots: [1, 3, 5, 8, 9, 10]
07.02.2016 19:13:19 [Thread-12] INFO  by.seleznev.auction.entity.Participant  - Participant: 2 - has been started and interested in lots: [2, 3, 5, 6, 7, 8]
07.02.2016 19:13:19 [Thread-23] INFO  by.seleznev.auction.entity.Participant  - Participant: 13 - has been started and interested in lots: [9]
07.02.2016 19:13:19 [Thread-27] INFO  by.seleznev.auction.entity.Participant  - Participant: 17 - has been started and interested in lots: [6]
07.02.2016 19:13:19 [Thread-19] INFO  by.seleznev.auction.entity.Participant  - Participant: 9 - has been started and interested in lots: [2, 6]
07.02.2016 19:13:19 [Thread-16] INFO  by.seleznev.auction.entity.Participant  - Participant: 6 - has been started and interested in lots: [1, 2, 3, 4, 5, 7, 10]
07.02.2016 19:13:19 [Thread-26] INFO  by.seleznev.auction.entity.Participant  - Participant: 16 - has been started and interested in lots: [2, 4, 6, 8, 10]
07.02.2016 19:13:19 [Thread-21] INFO  by.seleznev.auction.entity.Participant  - Participant 11 isn't interested in lot
07.02.2016 19:13:19 [Thread-21] INFO  by.seleznev.auction.entity.Participant  - Participant 11 stop bidding and awaiting the results of the round
07.02.2016 19:13:19 [Thread-30] INFO  by.seleznev.auction.entity.Participant  - Participant: 20 - has been started and interested in lots: [1, 2, 3, 4, 5, 7, 8]
07.02.2016 19:13:19 [Thread-28] INFO  by.seleznev.auction.entity.Participant  - Participant: 18 - has been started and interested in lots: [1, 2, 4, 5, 9, 10]
07.02.2016 19:13:19 [Thread-22] INFO  by.seleznev.auction.entity.Participant  - Participant: 12 - has been started and interested in lots: [1, 2, 6, 7, 9]
07.02.2016 19:13:19 [Thread-17] INFO  by.seleznev.auction.entity.Participant  - Participant 7 isn't interested in lot
07.02.2016 19:13:19 [Thread-26] INFO  by.seleznev.auction.entity.Participant  - Participant 16 isn't interested in lot
07.02.2016 19:13:19 [Thread-19] INFO  by.seleznev.auction.entity.Participant  - Participant 9 isn't interested in lot
07.02.2016 19:13:19 [Thread-19] INFO  by.seleznev.auction.entity.Participant  - Participant 9 stop bidding and awaiting the results of the round
07.02.2016 19:13:19 [Thread-23] INFO  by.seleznev.auction.entity.Participant  - Participant 13 isn't interested in lot
07.02.2016 19:13:19 [Thread-23] INFO  by.seleznev.auction.entity.Participant  - Participant 13 stop bidding and awaiting the results of the round
07.02.2016 19:13:19 [Thread-14] INFO  by.seleznev.auction.entity.Participant  - Participant 4 isn't interested in lot
07.02.2016 19:13:19 [Thread-13] INFO  by.seleznev.auction.entity.Participant  - Participant 3 isn't interested in lot
07.02.2016 19:13:19 [Thread-14] INFO  by.seleznev.auction.entity.Participant  - Participant 4 stop bidding and awaiting the results of the round
07.02.2016 19:13:19 [Thread-27] INFO  by.seleznev.auction.entity.Participant  - Participant 17 isn't interested in lot
07.02.2016 19:13:19 [Thread-28] INFO  by.seleznev.auction.entity.Participant  - Participant 18 isn't interested in lot
07.02.2016 19:13:19 [Thread-26] INFO  by.seleznev.auction.entity.Participant  - Participant 16 stop bidding and awaiting the results of the round
07.02.2016 19:13:19 [Thread-17] INFO  by.seleznev.auction.entity.Participant  - Participant 7 stop bidding and awaiting the results of the round
07.02.2016 19:13:19 [Thread-22] INFO  by.seleznev.auction.entity.Participant  - Participant 12 isn't interested in lot
07.02.2016 19:13:19 [Thread-22] INFO  by.seleznev.auction.entity.Participant  - Participant 12 stop bidding and awaiting the results of the round
07.02.2016 19:13:19 [Thread-28] INFO  by.seleznev.auction.entity.Participant  - Participant 18 stop bidding and awaiting the results of the round
07.02.2016 19:13:19 [Thread-27] INFO  by.seleznev.auction.entity.Participant  - Participant 17 stop bidding and awaiting the results of the round
07.02.2016 19:13:19 [Thread-13] INFO  by.seleznev.auction.entity.Participant  - Participant 3 stop bidding and awaiting the results of the round
07.02.2016 19:13:21 [Thread-29] INFO  by.seleznev.auction.entity.Participant  - Participant 19 stop bidding and awaiting the results of the round
07.02.2016 19:13:23 [Thread-11] INFO  by.seleznev.auction.entity.Participant  - Participant 1 stop bidding and awaiting the results of the round
07.02.2016 19:13:23 [Thread-30] INFO  by.seleznev.auction.entity.Participant  - Participant 20 stop bidding and awaiting the results of the round
07.02.2016 19:13:23 [Thread-24] INFO  by.seleznev.auction.entity.Participant  - Participant 14 stop bidding and awaiting the results of the round
07.02.2016 19:13:23 [Thread-16] INFO  by.seleznev.auction.entity.Participant  - Participant 6 stop bidding and awaiting the results of the round
07.02.2016 19:13:24 [Thread-3] INFO  by.seleznev.auction.entity.RoundAuction  - Bidding time is over
07.02.2016 19:13:24 [Thread-25] INFO  by.seleznev.auction.entity.Participant  - Participant 15 stop bidding and awaiting the results of the round
07.02.2016 19:13:25 [Thread-20] INFO  by.seleznev.auction.entity.Participant  - Participant 10 stop bidding and awaiting the results of the round
07.02.2016 19:13:25 [Thread-12] INFO  by.seleznev.auction.entity.Participant  - Participant 2 stop bidding and awaiting the results of the round
07.02.2016 19:13:25 [Thread-15] INFO  by.seleznev.auction.entity.Participant  - Participant 5 stop bidding and awaiting the results of the round
07.02.2016 19:13:25 [Thread-18] INFO  by.seleznev.auction.entity.Participant  - Participant 8 stop bidding and awaiting the results of the round
07.02.2016 19:13:25 [Thread-18] INFO  by.seleznev.auction.report.ReportAuction  - Round 3: Participant 10 has won!
07.02.2016 19:13:25 [Thread-18] INFO  by.seleznev.auction.report.ReportAuction  - Round 3 finish
07.02.2016 19:13:25 [Thread-0] INFO  by.seleznev.auction.entity.Auction  - Round 4 start
07.02.2016 19:13:25 [Thread-27] INFO  by.seleznev.auction.entity.Participant  - Participant: 17 - has been started and interested in lots: [6]
07.02.2016 19:13:25 [Thread-22] INFO  by.seleznev.auction.entity.Participant  - Participant: 12 - has been started and interested in lots: [1, 2, 6, 7, 9]
07.02.2016 19:13:25 [Thread-13] INFO  by.seleznev.auction.entity.Participant  - Participant: 3 - has been started and interested in lots: [2, 5, 6, 8, 9, 10]
07.02.2016 19:13:25 [Thread-29] INFO  by.seleznev.auction.entity.Participant  - Participant: 19 - has been started and interested in lots: [1, 3, 4, 8, 9]
07.02.2016 19:13:25 [Thread-17] INFO  by.seleznev.auction.entity.Participant  - Participant: 7 - has been started and interested in lots: [2, 4, 7, 8, 9]
07.02.2016 19:13:25 [Thread-11] INFO  by.seleznev.auction.entity.Participant  - Participant: 1 - has been started and interested in lots: [3, 4, 6, 7, 8, 10]
07.02.2016 19:13:25 [Thread-19] INFO  by.seleznev.auction.entity.Participant  - Participant: 9 - has been started and interested in lots: [2, 6]
07.02.2016 19:13:25 [Thread-26] INFO  by.seleznev.auction.entity.Participant  - Participant: 16 - has been started and interested in lots: [2, 4, 6, 8, 10]
07.02.2016 19:13:25 [Thread-30] INFO  by.seleznev.auction.entity.Participant  - Participant: 20 - has been started and interested in lots: [1, 2, 3, 4, 5, 7, 8]
07.02.2016 19:13:25 [Thread-24] INFO  by.seleznev.auction.entity.Participant  - Participant: 14 - has been started and interested in lots: [3, 4, 5, 7, 8, 10]
07.02.2016 19:13:25 [Thread-16] INFO  by.seleznev.auction.entity.Participant  - Participant: 6 - has been started and interested in lots: [1, 2, 3, 4, 5, 7, 10]
07.02.2016 19:13:25 [Thread-25] INFO  by.seleznev.auction.entity.Participant  - Participant: 15 - has been started and interested in lots: [1, 3, 6, 8]
07.02.2016 19:13:25 [Thread-20] INFO  by.seleznev.auction.entity.Participant  - Participant: 10 - has been started and interested in lots: [3, 5]
07.02.2016 19:13:25 [Thread-12] INFO  by.seleznev.auction.entity.Participant  - Participant: 2 - has been started and interested in lots: [2, 3, 5, 6, 7, 8]
07.02.2016 19:13:25 [Thread-14] INFO  by.seleznev.auction.entity.Participant  - Participant: 4 - has been started and interested in lots: [7]
07.02.2016 19:13:25 [Thread-15] INFO  by.seleznev.auction.entity.Participant  - Participant: 5 - has been started and interested in lots: [1, 3, 5, 8, 9, 10]
07.02.2016 19:13:25 [Thread-14] INFO  by.seleznev.auction.entity.Participant  - Participant 4 isn't interested in lot
07.02.2016 19:13:25 [Thread-14] INFO  by.seleznev.auction.entity.Participant  - Participant 4 stop bidding and awaiting the results of the round
07.02.2016 19:13:25 [Thread-23] INFO  by.seleznev.auction.entity.Participant  - Participant: 13 - has been started and interested in lots: [9]
07.02.2016 19:13:25 [Thread-15] INFO  by.seleznev.auction.entity.Participant  - Participant 5 isn't interested in lot
07.02.2016 19:13:25 [Thread-15] INFO  by.seleznev.auction.entity.Participant  - Participant 5 stop bidding and awaiting the results of the round
07.02.2016 19:13:25 [Thread-18] INFO  by.seleznev.auction.entity.Participant  - Participant: 8 - has been started and interested in lots: [3, 5, 10]
07.02.2016 19:13:25 [Thread-19] INFO  by.seleznev.auction.entity.Participant  - Participant 9 isn't interested in lot
07.02.2016 19:13:25 [Thread-19] INFO  by.seleznev.auction.entity.Participant  - Participant 9 stop bidding and awaiting the results of the round
07.02.2016 19:13:25 [Thread-18] INFO  by.seleznev.auction.entity.Participant  - Participant 8 isn't interested in lot
07.02.2016 19:13:25 [Thread-18] INFO  by.seleznev.auction.entity.Participant  - Participant 8 stop bidding and awaiting the results of the round
07.02.2016 19:13:25 [Thread-12] INFO  by.seleznev.auction.entity.Participant  - Participant 2 isn't interested in lot
07.02.2016 19:13:25 [Thread-12] INFO  by.seleznev.auction.entity.Participant  - Participant 2 stop bidding and awaiting the results of the round
07.02.2016 19:13:25 [Thread-13] INFO  by.seleznev.auction.entity.Participant  - Participant 3 isn't interested in lot
07.02.2016 19:13:25 [Thread-13] INFO  by.seleznev.auction.entity.Participant  - Participant 3 stop bidding and awaiting the results of the round
07.02.2016 19:13:25 [Thread-21] INFO  by.seleznev.auction.entity.Participant  - Participant: 11 - has been started and interested in lots: [6, 8]
07.02.2016 19:13:25 [Thread-20] INFO  by.seleznev.auction.entity.Participant  - Participant 10 isn't interested in lot
07.02.2016 19:13:25 [Thread-20] INFO  by.seleznev.auction.entity.Participant  - Participant 10 stop bidding and awaiting the results of the round
07.02.2016 19:13:25 [Thread-28] INFO  by.seleznev.auction.entity.Participant  - Participant: 18 - has been started and interested in lots: [1, 2, 4, 5, 9, 10]
07.02.2016 19:13:25 [Thread-21] INFO  by.seleznev.auction.entity.Participant  - Participant 11 isn't interested in lot
07.02.2016 19:13:25 [Thread-21] INFO  by.seleznev.auction.entity.Participant  - Participant 11 stop bidding and awaiting the results of the round
07.02.2016 19:13:25 [Thread-25] INFO  by.seleznev.auction.entity.Participant  - Participant 15 isn't interested in lot
07.02.2016 19:13:25 [Thread-25] INFO  by.seleznev.auction.entity.Participant  - Participant 15 stop bidding and awaiting the results of the round
07.02.2016 19:13:25 [Thread-27] INFO  by.seleznev.auction.entity.Participant  - Participant 17 isn't interested in lot
07.02.2016 19:13:25 [Thread-27] INFO  by.seleznev.auction.entity.Participant  - Participant 17 stop bidding and awaiting the results of the round
07.02.2016 19:13:25 [Thread-22] INFO  by.seleznev.auction.entity.Participant  - Participant 12 isn't interested in lot
07.02.2016 19:13:25 [Thread-23] INFO  by.seleznev.auction.entity.Participant  - Participant 13 isn't interested in lot
07.02.2016 19:13:25 [Thread-22] INFO  by.seleznev.auction.entity.Participant  - Participant 12 stop bidding and awaiting the results of the round
07.02.2016 19:13:25 [Thread-23] INFO  by.seleznev.auction.entity.Participant  - Participant 13 stop bidding and awaiting the results of the round
07.02.2016 19:13:27 [Thread-26] INFO  by.seleznev.auction.entity.Participant  - Participant 16 stop bidding and awaiting the results of the round
07.02.2016 19:13:30 [Thread-4] INFO  by.seleznev.auction.entity.RoundAuction  - Bidding time is over
07.02.2016 19:13:30 [Thread-30] INFO  by.seleznev.auction.entity.Participant  - Participant 20 stop bidding and awaiting the results of the round
07.02.2016 19:13:31 [Thread-29] INFO  by.seleznev.auction.entity.Participant  - Participant 19 stop bidding and awaiting the results of the round
07.02.2016 19:13:31 [Thread-16] INFO  by.seleznev.auction.entity.Participant  - Participant 6 stop bidding and awaiting the results of the round
07.02.2016 19:13:31 [Thread-24] INFO  by.seleznev.auction.entity.Participant  - Participant 14 stop bidding and awaiting the results of the round
07.02.2016 19:13:31 [Thread-28] INFO  by.seleznev.auction.entity.Participant  - Participant 18 stop bidding and awaiting the results of the round
07.02.2016 19:13:31 [Thread-17] INFO  by.seleznev.auction.entity.Participant  - Participant 7 stop bidding and awaiting the results of the round
07.02.2016 19:13:31 [Thread-11] INFO  by.seleznev.auction.entity.Participant  - Participant 1 stop bidding and awaiting the results of the round
07.02.2016 19:13:31 [Thread-11] INFO  by.seleznev.auction.report.ReportAuction  - Round 4: Participant 7 has won!
07.02.2016 19:13:31 [Thread-11] INFO  by.seleznev.auction.report.ReportAuction  - Round 4 finish
07.02.2016 19:13:31 [Thread-0] INFO  by.seleznev.auction.entity.Auction  - Round 5 start
07.02.2016 19:13:31 [Thread-18] INFO  by.seleznev.auction.entity.Participant  - Participant: 8 - has been started and interested in lots: [3, 5, 10]
07.02.2016 19:13:31 [Thread-19] INFO  by.seleznev.auction.entity.Participant  - Participant: 9 - has been started and interested in lots: [2, 6]
07.02.2016 19:13:31 [Thread-15] INFO  by.seleznev.auction.entity.Participant  - Participant: 5 - has been started and interested in lots: [1, 3, 5, 8, 9, 10]
07.02.2016 19:13:31 [Thread-14] INFO  by.seleznev.auction.entity.Participant  - Participant: 4 - has been started and interested in lots: [7]
07.02.2016 19:13:31 [Thread-11] INFO  by.seleznev.auction.entity.Participant  - Participant: 1 - has been started and interested in lots: [3, 4, 6, 7, 8, 10]
07.02.2016 19:13:31 [Thread-21] INFO  by.seleznev.auction.entity.Participant  - Participant: 11 - has been started and interested in lots: [6, 8]
07.02.2016 19:13:31 [Thread-25] INFO  by.seleznev.auction.entity.Participant  - Participant: 15 - has been started and interested in lots: [1, 3, 6, 8]
07.02.2016 19:13:31 [Thread-20] INFO  by.seleznev.auction.entity.Participant  - Participant: 10 - has been started and interested in lots: [3, 5]
07.02.2016 19:13:31 [Thread-13] INFO  by.seleznev.auction.entity.Participant  - Participant: 3 - has been started and interested in lots: [2, 5, 6, 8, 9, 10]
07.02.2016 19:13:31 [Thread-12] INFO  by.seleznev.auction.entity.Participant  - Participant: 2 - has been started and interested in lots: [2, 3, 5, 6, 7, 8]
07.02.2016 19:13:31 [Thread-22] INFO  by.seleznev.auction.entity.Participant  - Participant: 12 - has been started and interested in lots: [1, 2, 6, 7, 9]
07.02.2016 19:13:31 [Thread-27] INFO  by.seleznev.auction.entity.Participant  - Participant: 17 - has been started and interested in lots: [6]
07.02.2016 19:13:31 [Thread-11] INFO  by.seleznev.auction.entity.Participant  - Participant 1 isn't interested in lot
07.02.2016 19:13:31 [Thread-11] INFO  by.seleznev.auction.entity.Participant  - Participant 1 stop bidding and awaiting the results of the round
07.02.2016 19:13:31 [Thread-23] INFO  by.seleznev.auction.entity.Participant  - Participant: 13 - has been started and interested in lots: [9]
07.02.2016 19:13:31 [Thread-26] INFO  by.seleznev.auction.entity.Participant  - Participant: 16 - has been started and interested in lots: [2, 4, 6, 8, 10]
07.02.2016 19:13:31 [Thread-14] INFO  by.seleznev.auction.entity.Participant  - Participant 4 isn't interested in lot
07.02.2016 19:13:31 [Thread-17] INFO  by.seleznev.auction.entity.Participant  - Participant: 7 - has been started and interested in lots: [2, 4, 7, 8, 9]
07.02.2016 19:13:31 [Thread-28] INFO  by.seleznev.auction.entity.Participant  - Participant: 18 - has been started and interested in lots: [1, 2, 4, 5, 9, 10]
07.02.2016 19:13:31 [Thread-24] INFO  by.seleznev.auction.entity.Participant  - Participant: 14 - has been started and interested in lots: [3, 4, 5, 7, 8, 10]
07.02.2016 19:13:31 [Thread-16] INFO  by.seleznev.auction.entity.Participant  - Participant: 6 - has been started and interested in lots: [1, 2, 3, 4, 5, 7, 10]
07.02.2016 19:13:31 [Thread-29] INFO  by.seleznev.auction.entity.Participant  - Participant: 19 - has been started and interested in lots: [1, 3, 4, 8, 9]
07.02.2016 19:13:31 [Thread-30] INFO  by.seleznev.auction.entity.Participant  - Participant: 20 - has been started and interested in lots: [1, 2, 3, 4, 5, 7, 8]
07.02.2016 19:13:31 [Thread-21] INFO  by.seleznev.auction.entity.Participant  - Participant 11 isn't interested in lot
07.02.2016 19:13:31 [Thread-21] INFO  by.seleznev.auction.entity.Participant  - Participant 11 stop bidding and awaiting the results of the round
07.02.2016 19:13:31 [Thread-25] INFO  by.seleznev.auction.entity.Participant  - Participant 15 isn't interested in lot
07.02.2016 19:13:31 [Thread-25] INFO  by.seleznev.auction.entity.Participant  - Participant 15 stop bidding and awaiting the results of the round
07.02.2016 19:13:31 [Thread-29] INFO  by.seleznev.auction.entity.Participant  - Participant 19 isn't interested in lot
07.02.2016 19:13:31 [Thread-29] INFO  by.seleznev.auction.entity.Participant  - Participant 19 stop bidding and awaiting the results of the round
07.02.2016 19:13:31 [Thread-17] INFO  by.seleznev.auction.entity.Participant  - Participant 7 isn't interested in lot
07.02.2016 19:13:31 [Thread-26] INFO  by.seleznev.auction.entity.Participant  - Participant 16 isn't interested in lot
07.02.2016 19:13:31 [Thread-26] INFO  by.seleznev.auction.entity.Participant  - Participant 16 stop bidding and awaiting the results of the round
07.02.2016 19:13:31 [Thread-14] INFO  by.seleznev.auction.entity.Participant  - Participant 4 stop bidding and awaiting the results of the round
07.02.2016 19:13:31 [Thread-17] INFO  by.seleznev.auction.entity.Participant  - Participant 7 stop bidding and awaiting the results of the round
07.02.2016 19:13:31 [Thread-27] INFO  by.seleznev.auction.entity.Participant  - Participant 17 isn't interested in lot
07.02.2016 19:13:31 [Thread-27] INFO  by.seleznev.auction.entity.Participant  - Participant 17 stop bidding and awaiting the results of the round
07.02.2016 19:13:31 [Thread-23] INFO  by.seleznev.auction.entity.Participant  - Participant 13 isn't interested in lot
07.02.2016 19:13:31 [Thread-23] INFO  by.seleznev.auction.entity.Participant  - Participant 13 stop bidding and awaiting the results of the round
07.02.2016 19:13:31 [Thread-22] INFO  by.seleznev.auction.entity.Participant  - Participant 12 isn't interested in lot
07.02.2016 19:13:31 [Thread-22] INFO  by.seleznev.auction.entity.Participant  - Participant 12 stop bidding and awaiting the results of the round
07.02.2016 19:13:31 [Thread-19] INFO  by.seleznev.auction.entity.Participant  - Participant 9 isn't interested in lot
07.02.2016 19:13:31 [Thread-19] INFO  by.seleznev.auction.entity.Participant  - Participant 9 stop bidding and awaiting the results of the round
07.02.2016 19:13:33 [Thread-20] INFO  by.seleznev.auction.entity.Participant  - Participant 10 stop bidding and awaiting the results of the round
07.02.2016 19:13:35 [Thread-24] INFO  by.seleznev.auction.entity.Participant  - Participant 14 stop bidding and awaiting the results of the round
07.02.2016 19:13:36 [Thread-5] INFO  by.seleznev.auction.entity.RoundAuction  - Bidding time is over
07.02.2016 19:13:36 [Thread-16] INFO  by.seleznev.auction.entity.Participant  - Participant 6 stop bidding and awaiting the results of the round
07.02.2016 19:13:37 [Thread-30] INFO  by.seleznev.auction.entity.Participant  - Participant 20 stop bidding and awaiting the results of the round
07.02.2016 19:13:37 [Thread-15] INFO  by.seleznev.auction.entity.Participant  - Participant 5 stop bidding and awaiting the results of the round
07.02.2016 19:13:37 [Thread-18] INFO  by.seleznev.auction.entity.Participant  - Participant 8 stop bidding and awaiting the results of the round
07.02.2016 19:13:37 [Thread-12] INFO  by.seleznev.auction.entity.Participant  - Participant 2 stop bidding and awaiting the results of the round
07.02.2016 19:13:37 [Thread-28] INFO  by.seleznev.auction.entity.Participant  - Participant 18 stop bidding and awaiting the results of the round
07.02.2016 19:13:37 [Thread-13] INFO  by.seleznev.auction.entity.Participant  - Participant 3 stop bidding and awaiting the results of the round
07.02.2016 19:13:37 [Thread-13] INFO  by.seleznev.auction.report.ReportAuction  - Round 5: Participant 8 has won!
07.02.2016 19:13:37 [Thread-13] INFO  by.seleznev.auction.report.ReportAuction  - Round 5 finish
07.02.2016 19:13:37 [Thread-0] INFO  by.seleznev.auction.entity.Auction  - Round 6 start
07.02.2016 19:13:37 [Thread-25] INFO  by.seleznev.auction.entity.Participant  - Participant: 15 - has been started and interested in lots: [1, 3, 6, 8]
07.02.2016 19:13:37 [Thread-29] INFO  by.seleznev.auction.entity.Participant  - Participant: 19 - has been started and interested in lots: [1, 3, 4, 8, 9]
07.02.2016 19:13:37 [Thread-21] INFO  by.seleznev.auction.entity.Participant  - Participant: 11 - has been started and interested in lots: [6, 8]
07.02.2016 19:13:37 [Thread-13] INFO  by.seleznev.auction.entity.Participant  - Participant: 3 - has been started and interested in lots: [2, 5, 6, 8, 9, 10]
07.02.2016 19:13:37 [Thread-26] INFO  by.seleznev.auction.entity.Participant  - Participant: 16 - has been started and interested in lots: [2, 4, 6, 8, 10]
07.02.2016 19:13:37 [Thread-11] INFO  by.seleznev.auction.entity.Participant  - Participant: 1 - has been started and interested in lots: [3, 4, 6, 7, 8, 10]
07.02.2016 19:13:37 [Thread-14] INFO  by.seleznev.auction.entity.Participant  - Participant: 4 - has been started and interested in lots: [7]
07.02.2016 19:13:37 [Thread-17] INFO  by.seleznev.auction.entity.Participant  - Participant: 7 - has been started and interested in lots: [2, 4, 7, 8, 9]
07.02.2016 19:13:37 [Thread-27] INFO  by.seleznev.auction.entity.Participant  - Participant: 17 - has been started and interested in lots: [6]
07.02.2016 19:13:37 [Thread-23] INFO  by.seleznev.auction.entity.Participant  - Participant: 13 - has been started and interested in lots: [9]
07.02.2016 19:13:37 [Thread-22] INFO  by.seleznev.auction.entity.Participant  - Participant: 12 - has been started and interested in lots: [1, 2, 6, 7, 9]
07.02.2016 19:13:37 [Thread-19] INFO  by.seleznev.auction.entity.Participant  - Participant: 9 - has been started and interested in lots: [2, 6]
07.02.2016 19:13:37 [Thread-20] INFO  by.seleznev.auction.entity.Participant  - Participant: 10 - has been started and interested in lots: [3, 5]
07.02.2016 19:13:37 [Thread-24] INFO  by.seleznev.auction.entity.Participant  - Participant: 14 - has been started and interested in lots: [3, 4, 5, 7, 8, 10]
07.02.2016 19:13:37 [Thread-16] INFO  by.seleznev.auction.entity.Participant  - Participant: 6 - has been started and interested in lots: [1, 2, 3, 4, 5, 7, 10]
07.02.2016 19:13:37 [Thread-30] INFO  by.seleznev.auction.entity.Participant  - Participant: 20 - has been started and interested in lots: [1, 2, 3, 4, 5, 7, 8]
07.02.2016 19:13:37 [Thread-15] INFO  by.seleznev.auction.entity.Participant  - Participant: 5 - has been started and interested in lots: [1, 3, 5, 8, 9, 10]
07.02.2016 19:13:37 [Thread-18] INFO  by.seleznev.auction.entity.Participant  - Participant: 8 - has been started and interested in lots: [3, 5, 10]
07.02.2016 19:13:37 [Thread-28] INFO  by.seleznev.auction.entity.Participant  - Participant: 18 - has been started and interested in lots: [1, 2, 4, 5, 9, 10]
07.02.2016 19:13:37 [Thread-12] INFO  by.seleznev.auction.entity.Participant  - Participant: 2 - has been started and interested in lots: [2, 3, 5, 6, 7, 8]
07.02.2016 19:13:37 [Thread-18] INFO  by.seleznev.auction.entity.Participant  - Participant 8 isn't interested in lot
07.02.2016 19:13:37 [Thread-18] INFO  by.seleznev.auction.entity.Participant  - Participant 8 stop bidding and awaiting the results of the round
07.02.2016 19:13:37 [Thread-16] INFO  by.seleznev.auction.entity.Participant  - Participant 6 isn't interested in lot
07.02.2016 19:13:37 [Thread-16] INFO  by.seleznev.auction.entity.Participant  - Participant 6 stop bidding and awaiting the results of the round
07.02.2016 19:13:37 [Thread-17] INFO  by.seleznev.auction.entity.Participant  - Participant 7 isn't interested in lot
07.02.2016 19:13:37 [Thread-17] INFO  by.seleznev.auction.entity.Participant  - Participant 7 stop bidding and awaiting the results of the round
07.02.2016 19:13:37 [Thread-20] INFO  by.seleznev.auction.entity.Participant  - Participant 10 isn't interested in lot
07.02.2016 19:13:37 [Thread-20] INFO  by.seleznev.auction.entity.Participant  - Participant 10 stop bidding and awaiting the results of the round
07.02.2016 19:13:37 [Thread-24] INFO  by.seleznev.auction.entity.Participant  - Participant 14 isn't interested in lot
07.02.2016 19:13:37 [Thread-24] INFO  by.seleznev.auction.entity.Participant  - Participant 14 stop bidding and awaiting the results of the round
07.02.2016 19:13:37 [Thread-28] INFO  by.seleznev.auction.entity.Participant  - Participant 18 isn't interested in lot
07.02.2016 19:13:37 [Thread-28] INFO  by.seleznev.auction.entity.Participant  - Participant 18 stop bidding and awaiting the results of the round
07.02.2016 19:13:37 [Thread-29] INFO  by.seleznev.auction.entity.Participant  - Participant 19 isn't interested in lot
07.02.2016 19:13:37 [Thread-29] INFO  by.seleznev.auction.entity.Participant  - Participant 19 stop bidding and awaiting the results of the round
07.02.2016 19:13:37 [Thread-14] INFO  by.seleznev.auction.entity.Participant  - Participant 4 isn't interested in lot
07.02.2016 19:13:37 [Thread-14] INFO  by.seleznev.auction.entity.Participant  - Participant 4 stop bidding and awaiting the results of the round
07.02.2016 19:13:37 [Thread-15] INFO  by.seleznev.auction.entity.Participant  - Participant 5 isn't interested in lot
07.02.2016 19:13:37 [Thread-15] INFO  by.seleznev.auction.entity.Participant  - Participant 5 stop bidding and awaiting the results of the round
07.02.2016 19:13:37 [Thread-23] INFO  by.seleznev.auction.entity.Participant  - Participant 13 isn't interested in lot
07.02.2016 19:13:37 [Thread-23] INFO  by.seleznev.auction.entity.Participant  - Participant 13 stop bidding and awaiting the results of the round
07.02.2016 19:13:37 [Thread-30] INFO  by.seleznev.auction.entity.Participant  - Participant 20 isn't interested in lot
07.02.2016 19:13:37 [Thread-30] INFO  by.seleznev.auction.entity.Participant  - Participant 20 stop bidding and awaiting the results of the round
07.02.2016 19:13:39 [Thread-26] INFO  by.seleznev.auction.entity.Participant  - Participant 16 stop bidding and awaiting the results of the round
07.02.2016 19:13:42 [Thread-6] INFO  by.seleznev.auction.entity.RoundAuction  - Bidding time is over
07.02.2016 19:13:42 [Thread-21] INFO  by.seleznev.auction.entity.Participant  - Participant 11 stop bidding and awaiting the results of the round
07.02.2016 19:13:43 [Thread-12] INFO  by.seleznev.auction.entity.Participant  - Participant 2 stop bidding and awaiting the results of the round
07.02.2016 19:13:43 [Thread-25] INFO  by.seleznev.auction.entity.Participant  - Participant 15 stop bidding and awaiting the results of the round
07.02.2016 19:13:43 [Thread-13] INFO  by.seleznev.auction.entity.Participant  - Participant 3 stop bidding and awaiting the results of the round
07.02.2016 19:13:43 [Thread-19] INFO  by.seleznev.auction.entity.Participant  - Participant 9 stop bidding and awaiting the results of the round
07.02.2016 19:13:43 [Thread-11] INFO  by.seleznev.auction.entity.Participant  - Participant 1 stop bidding and awaiting the results of the round
07.02.2016 19:13:43 [Thread-22] INFO  by.seleznev.auction.entity.Participant  - Participant 12 stop bidding and awaiting the results of the round
07.02.2016 19:13:43 [Thread-27] INFO  by.seleznev.auction.entity.Participant  - Participant 17 stop bidding and awaiting the results of the round
07.02.2016 19:13:43 [Thread-27] INFO  by.seleznev.auction.report.ReportAuction  - Round 6: Participant 15 has won!
07.02.2016 19:13:43 [Thread-27] INFO  by.seleznev.auction.report.ReportAuction  - Round 6 finish
07.02.2016 19:13:43 [Thread-0] INFO  by.seleznev.auction.entity.Auction  - Round 7 start
07.02.2016 19:13:43 [Thread-27] INFO  by.seleznev.auction.entity.Participant  - Participant: 17 - has been started and interested in lots: [6]
07.02.2016 19:13:43 [Thread-26] INFO  by.seleznev.auction.entity.Participant  - Participant: 16 - has been started and interested in lots: [2, 4, 6, 8, 10]
07.02.2016 19:13:43 [Thread-30] INFO  by.seleznev.auction.entity.Participant  - Participant: 20 - has been started and interested in lots: [1, 2, 3, 4, 5, 7, 8]
07.02.2016 19:13:43 [Thread-23] INFO  by.seleznev.auction.entity.Participant  - Participant: 13 - has been started and interested in lots: [9]
07.02.2016 19:13:43 [Thread-15] INFO  by.seleznev.auction.entity.Participant  - Participant: 5 - has been started and interested in lots: [1, 3, 5, 8, 9, 10]
07.02.2016 19:13:43 [Thread-14] INFO  by.seleznev.auction.entity.Participant  - Participant: 4 - has been started and interested in lots: [7]
07.02.2016 19:13:43 [Thread-21] INFO  by.seleznev.auction.entity.Participant  - Participant: 11 - has been started and interested in lots: [6, 8]
07.02.2016 19:13:43 [Thread-29] INFO  by.seleznev.auction.entity.Participant  - Participant: 19 - has been started and interested in lots: [1, 3, 4, 8, 9]
07.02.2016 19:13:43 [Thread-12] INFO  by.seleznev.auction.entity.Participant  - Participant: 2 - has been started and interested in lots: [2, 3, 5, 6, 7, 8]
07.02.2016 19:13:43 [Thread-28] INFO  by.seleznev.auction.entity.Participant  - Participant: 18 - has been started and interested in lots: [1, 2, 4, 5, 9, 10]
07.02.2016 19:13:43 [Thread-25] INFO  by.seleznev.auction.entity.Participant  - Participant: 15 - has been started and interested in lots: [1, 3, 6, 8]
07.02.2016 19:13:43 [Thread-24] INFO  by.seleznev.auction.entity.Participant  - Participant: 14 - has been started and interested in lots: [3, 4, 5, 7, 8, 10]
07.02.2016 19:13:43 [Thread-13] INFO  by.seleznev.auction.entity.Participant  - Participant: 3 - has been started and interested in lots: [2, 5, 6, 8, 9, 10]
07.02.2016 19:13:43 [Thread-20] INFO  by.seleznev.auction.entity.Participant  - Participant: 10 - has been started and interested in lots: [3, 5]
07.02.2016 19:13:43 [Thread-17] INFO  by.seleznev.auction.entity.Participant  - Participant: 7 - has been started and interested in lots: [2, 4, 7, 8, 9]
07.02.2016 19:13:43 [Thread-16] INFO  by.seleznev.auction.entity.Participant  - Participant: 6 - has been started and interested in lots: [1, 2, 3, 4, 5, 7, 10]
07.02.2016 19:13:43 [Thread-19] INFO  by.seleznev.auction.entity.Participant  - Participant: 9 - has been started and interested in lots: [2, 6]
07.02.2016 19:13:43 [Thread-18] INFO  by.seleznev.auction.entity.Participant  - Participant: 8 - has been started and interested in lots: [3, 5, 10]
07.02.2016 19:13:43 [Thread-11] INFO  by.seleznev.auction.entity.Participant  - Participant: 1 - has been started and interested in lots: [3, 4, 6, 7, 8, 10]
07.02.2016 19:13:43 [Thread-22] INFO  by.seleznev.auction.entity.Participant  - Participant: 12 - has been started and interested in lots: [1, 2, 6, 7, 9]
07.02.2016 19:13:43 [Thread-15] INFO  by.seleznev.auction.entity.Participant  - Participant 5 isn't interested in lot
07.02.2016 19:13:43 [Thread-15] INFO  by.seleznev.auction.entity.Participant  - Participant 5 stop bidding and awaiting the results of the round
07.02.2016 19:13:43 [Thread-18] INFO  by.seleznev.auction.entity.Participant  - Participant 8 isn't interested in lot
07.02.2016 19:13:43 [Thread-18] INFO  by.seleznev.auction.entity.Participant  - Participant 8 stop bidding and awaiting the results of the round
07.02.2016 19:13:43 [Thread-29] INFO  by.seleznev.auction.entity.Participant  - Participant 19 isn't interested in lot
07.02.2016 19:13:43 [Thread-29] INFO  by.seleznev.auction.entity.Participant  - Participant 19 stop bidding and awaiting the results of the round
07.02.2016 19:13:43 [Thread-28] INFO  by.seleznev.auction.entity.Participant  - Participant 18 isn't interested in lot
07.02.2016 19:13:43 [Thread-28] INFO  by.seleznev.auction.entity.Participant  - Participant 18 stop bidding and awaiting the results of the round
07.02.2016 19:13:43 [Thread-25] INFO  by.seleznev.auction.entity.Participant  - Participant 15 isn't interested in lot
07.02.2016 19:13:43 [Thread-25] INFO  by.seleznev.auction.entity.Participant  - Participant 15 stop bidding and awaiting the results of the round
07.02.2016 19:13:43 [Thread-21] INFO  by.seleznev.auction.entity.Participant  - Participant 11 isn't interested in lot
07.02.2016 19:13:43 [Thread-21] INFO  by.seleznev.auction.entity.Participant  - Participant 11 stop bidding and awaiting the results of the round
07.02.2016 19:13:43 [Thread-20] INFO  by.seleznev.auction.entity.Participant  - Participant 10 isn't interested in lot
07.02.2016 19:13:43 [Thread-20] INFO  by.seleznev.auction.entity.Participant  - Participant 10 stop bidding and awaiting the results of the round
07.02.2016 19:13:43 [Thread-13] INFO  by.seleznev.auction.entity.Participant  - Participant 3 isn't interested in lot
07.02.2016 19:13:43 [Thread-13] INFO  by.seleznev.auction.entity.Participant  - Participant 3 stop bidding and awaiting the results of the round
07.02.2016 19:13:43 [Thread-27] INFO  by.seleznev.auction.entity.Participant  - Participant 17 isn't interested in lot
07.02.2016 19:13:43 [Thread-27] INFO  by.seleznev.auction.entity.Participant  - Participant 17 stop bidding and awaiting the results of the round
07.02.2016 19:13:43 [Thread-26] INFO  by.seleznev.auction.entity.Participant  - Participant 16 isn't interested in lot
07.02.2016 19:13:43 [Thread-26] INFO  by.seleznev.auction.entity.Participant  - Participant 16 stop bidding and awaiting the results of the round
07.02.2016 19:13:43 [Thread-23] INFO  by.seleznev.auction.entity.Participant  - Participant 13 isn't interested in lot
07.02.2016 19:13:43 [Thread-23] INFO  by.seleznev.auction.entity.Participant  - Participant 13 stop bidding and awaiting the results of the round
07.02.2016 19:13:43 [Thread-19] INFO  by.seleznev.auction.entity.Participant  - Participant 9 isn't interested in lot
07.02.2016 19:13:43 [Thread-19] INFO  by.seleznev.auction.entity.Participant  - Participant 9 stop bidding and awaiting the results of the round
07.02.2016 19:13:47 [Thread-17] INFO  by.seleznev.auction.entity.Participant  - Participant 7 stop bidding and awaiting the results of the round
07.02.2016 19:13:48 [Thread-7] INFO  by.seleznev.auction.entity.RoundAuction  - Bidding time is over
07.02.2016 19:13:48 [Thread-24] INFO  by.seleznev.auction.entity.Participant  - Participant 14 stop bidding and awaiting the results of the round
07.02.2016 19:13:49 [Thread-22] INFO  by.seleznev.auction.entity.Participant  - Participant 12 stop bidding and awaiting the results of the round
07.02.2016 19:13:49 [Thread-14] INFO  by.seleznev.auction.entity.Participant  - Participant 4 stop bidding and awaiting the results of the round
07.02.2016 19:13:49 [Thread-11] INFO  by.seleznev.auction.entity.Participant  - Participant 1 stop bidding and awaiting the results of the round
07.02.2016 19:13:49 [Thread-30] INFO  by.seleznev.auction.entity.Participant  - Participant 20 stop bidding and awaiting the results of the round
07.02.2016 19:13:49 [Thread-16] INFO  by.seleznev.auction.entity.Participant  - Participant 6 stop bidding and awaiting the results of the round
07.02.2016 19:13:49 [Thread-12] INFO  by.seleznev.auction.entity.Participant  - Participant 2 stop bidding and awaiting the results of the round
07.02.2016 19:13:49 [Thread-12] INFO  by.seleznev.auction.report.ReportAuction  - Round 7: Participant 2 has won!
07.02.2016 19:13:49 [Thread-12] INFO  by.seleznev.auction.report.ReportAuction  - Round 7 finish
07.02.2016 19:13:49 [Thread-18] INFO  by.seleznev.auction.entity.Participant  - Participant: 8 - has been started and interested in lots: [3, 5, 10]
07.02.2016 19:13:49 [Thread-15] INFO  by.seleznev.auction.entity.Participant  - Participant: 5 - has been started and interested in lots: [1, 3, 5, 8, 9, 10]
07.02.2016 19:13:49 [Thread-0] INFO  by.seleznev.auction.entity.Auction  - Round 8 start
07.02.2016 19:13:49 [Thread-29] INFO  by.seleznev.auction.entity.Participant  - Participant: 19 - has been started and interested in lots: [1, 3, 4, 8, 9]
07.02.2016 19:13:49 [Thread-12] INFO  by.seleznev.auction.entity.Participant  - Participant: 2 - has been started and interested in lots: [2, 3, 5, 6, 7, 8]
07.02.2016 19:13:49 [Thread-28] INFO  by.seleznev.auction.entity.Participant  - Participant: 18 - has been started and interested in lots: [1, 2, 4, 5, 9, 10]
07.02.2016 19:13:49 [Thread-25] INFO  by.seleznev.auction.entity.Participant  - Participant: 15 - has been started and interested in lots: [1, 3, 6, 8]
07.02.2016 19:13:49 [Thread-21] INFO  by.seleznev.auction.entity.Participant  - Participant: 11 - has been started and interested in lots: [6, 8]
07.02.2016 19:13:49 [Thread-20] INFO  by.seleznev.auction.entity.Participant  - Participant: 10 - has been started and interested in lots: [3, 5]
07.02.2016 19:13:49 [Thread-13] INFO  by.seleznev.auction.entity.Participant  - Participant: 3 - has been started and interested in lots: [2, 5, 6, 8, 9, 10]
07.02.2016 19:13:49 [Thread-27] INFO  by.seleznev.auction.entity.Participant  - Participant: 17 - has been started and interested in lots: [6]
07.02.2016 19:13:49 [Thread-26] INFO  by.seleznev.auction.entity.Participant  - Participant: 16 - has been started and interested in lots: [2, 4, 6, 8, 10]
07.02.2016 19:13:49 [Thread-23] INFO  by.seleznev.auction.entity.Participant  - Participant: 13 - has been started and interested in lots: [9]
07.02.2016 19:13:49 [Thread-19] INFO  by.seleznev.auction.entity.Participant  - Participant: 9 - has been started and interested in lots: [2, 6]
07.02.2016 19:13:49 [Thread-17] INFO  by.seleznev.auction.entity.Participant  - Participant: 7 - has been started and interested in lots: [2, 4, 7, 8, 9]
07.02.2016 19:13:49 [Thread-24] INFO  by.seleznev.auction.entity.Participant  - Participant: 14 - has been started and interested in lots: [3, 4, 5, 7, 8, 10]
07.02.2016 19:13:49 [Thread-22] INFO  by.seleznev.auction.entity.Participant  - Participant: 12 - has been started and interested in lots: [1, 2, 6, 7, 9]
07.02.2016 19:13:49 [Thread-14] INFO  by.seleznev.auction.entity.Participant  - Participant: 4 - has been started and interested in lots: [7]
07.02.2016 19:13:49 [Thread-11] INFO  by.seleznev.auction.entity.Participant  - Participant: 1 - has been started and interested in lots: [3, 4, 6, 7, 8, 10]
07.02.2016 19:13:49 [Thread-16] INFO  by.seleznev.auction.entity.Participant  - Participant: 6 - has been started and interested in lots: [1, 2, 3, 4, 5, 7, 10]
07.02.2016 19:13:49 [Thread-30] INFO  by.seleznev.auction.entity.Participant  - Participant: 20 - has been started and interested in lots: [1, 2, 3, 4, 5, 7, 8]
07.02.2016 19:13:49 [Thread-16] INFO  by.seleznev.auction.entity.Participant  - Participant 6 isn't interested in lot
07.02.2016 19:13:49 [Thread-16] INFO  by.seleznev.auction.entity.Participant  - Participant 6 stop bidding and awaiting the results of the round
07.02.2016 19:13:49 [Thread-20] INFO  by.seleznev.auction.entity.Participant  - Participant 10 isn't interested in lot
07.02.2016 19:13:49 [Thread-20] INFO  by.seleznev.auction.entity.Participant  - Participant 10 stop bidding and awaiting the results of the round
07.02.2016 19:13:49 [Thread-28] INFO  by.seleznev.auction.entity.Participant  - Participant 18 isn't interested in lot
07.02.2016 19:13:49 [Thread-28] INFO  by.seleznev.auction.entity.Participant  - Participant 18 stop bidding and awaiting the results of the round
07.02.2016 19:13:49 [Thread-14] INFO  by.seleznev.auction.entity.Participant  - Participant 4 isn't interested in lot
07.02.2016 19:13:49 [Thread-14] INFO  by.seleznev.auction.entity.Participant  - Participant 4 stop bidding and awaiting the results of the round
07.02.2016 19:13:49 [Thread-18] INFO  by.seleznev.auction.entity.Participant  - Participant 8 isn't interested in lot
07.02.2016 19:13:49 [Thread-18] INFO  by.seleznev.auction.entity.Participant  - Participant 8 stop bidding and awaiting the results of the round
07.02.2016 19:13:49 [Thread-22] INFO  by.seleznev.auction.entity.Participant  - Participant 12 isn't interested in lot
07.02.2016 19:13:49 [Thread-22] INFO  by.seleznev.auction.entity.Participant  - Participant 12 stop bidding and awaiting the results of the round
07.02.2016 19:13:49 [Thread-19] INFO  by.seleznev.auction.entity.Participant  - Participant 9 isn't interested in lot
07.02.2016 19:13:49 [Thread-19] INFO  by.seleznev.auction.entity.Participant  - Participant 9 stop bidding and awaiting the results of the round
07.02.2016 19:13:49 [Thread-23] INFO  by.seleznev.auction.entity.Participant  - Participant 13 isn't interested in lot
07.02.2016 19:13:49 [Thread-23] INFO  by.seleznev.auction.entity.Participant  - Participant 13 stop bidding and awaiting the results of the round
07.02.2016 19:13:49 [Thread-27] INFO  by.seleznev.auction.entity.Participant  - Participant 17 isn't interested in lot
07.02.2016 19:13:49 [Thread-27] INFO  by.seleznev.auction.entity.Participant  - Participant 17 stop bidding and awaiting the results of the round
07.02.2016 19:13:51 [Thread-29] INFO  by.seleznev.auction.entity.Participant  - Participant 19 stop bidding and awaiting the results of the round
07.02.2016 19:13:53 [Thread-26] INFO  by.seleznev.auction.entity.Participant  - Participant 16 stop bidding and awaiting the results of the round
07.02.2016 19:13:53 [Thread-12] INFO  by.seleznev.auction.entity.Participant  - Participant 2 stop bidding and awaiting the results of the round
07.02.2016 19:13:53 [Thread-17] INFO  by.seleznev.auction.entity.Participant  - Participant 7 stop bidding and awaiting the results of the round
07.02.2016 19:13:54 [Thread-8] INFO  by.seleznev.auction.entity.RoundAuction  - Bidding time is over
07.02.2016 19:13:54 [Thread-21] INFO  by.seleznev.auction.entity.Participant  - Participant 11 stop bidding and awaiting the results of the round
07.02.2016 19:13:55 [Thread-24] INFO  by.seleznev.auction.entity.Participant  - Participant 14 stop bidding and awaiting the results of the round
07.02.2016 19:13:55 [Thread-25] INFO  by.seleznev.auction.entity.Participant  - Participant 15 stop bidding and awaiting the results of the round
07.02.2016 19:13:55 [Thread-13] INFO  by.seleznev.auction.entity.Participant  - Participant 3 stop bidding and awaiting the results of the round
07.02.2016 19:13:55 [Thread-30] INFO  by.seleznev.auction.entity.Participant  - Participant 20 stop bidding and awaiting the results of the round
07.02.2016 19:13:55 [Thread-11] INFO  by.seleznev.auction.entity.Participant  - Participant 1 stop bidding and awaiting the results of the round
07.02.2016 19:13:55 [Thread-15] INFO  by.seleznev.auction.entity.Participant  - Participant 5 stop bidding and awaiting the results of the round
07.02.2016 19:13:55 [Thread-15] INFO  by.seleznev.auction.report.ReportAuction  - Round 8: Participant 3 has won!
07.02.2016 19:13:55 [Thread-15] INFO  by.seleznev.auction.report.ReportAuction  - Round 8 finish
07.02.2016 19:13:55 [Thread-0] INFO  by.seleznev.auction.entity.Auction  - Round 9 start
07.02.2016 19:13:55 [Thread-22] INFO  by.seleznev.auction.entity.Participant  - Participant: 12 - has been started and interested in lots: [1, 2, 6, 7, 9]
07.02.2016 19:13:55 [Thread-19] INFO  by.seleznev.auction.entity.Participant  - Participant: 9 - has been started and interested in lots: [2, 6]
07.02.2016 19:13:55 [Thread-18] INFO  by.seleznev.auction.entity.Participant  - Participant: 8 - has been started and interested in lots: [3, 5, 10]
07.02.2016 19:13:55 [Thread-23] INFO  by.seleznev.auction.entity.Participant  - Participant: 13 - has been started and interested in lots: [9]
07.02.2016 19:13:55 [Thread-14] INFO  by.seleznev.auction.entity.Participant  - Participant: 4 - has been started and interested in lots: [7]
07.02.2016 19:13:55 [Thread-27] INFO  by.seleznev.auction.entity.Participant  - Participant: 17 - has been started and interested in lots: [6]
07.02.2016 19:13:55 [Thread-15] INFO  by.seleznev.auction.entity.Participant  - Participant: 5 - has been started and interested in lots: [1, 3, 5, 8, 9, 10]
07.02.2016 19:13:55 [Thread-16] INFO  by.seleznev.auction.entity.Participant  - Participant: 6 - has been started and interested in lots: [1, 2, 3, 4, 5, 7, 10]
07.02.2016 19:13:55 [Thread-29] INFO  by.seleznev.auction.entity.Participant  - Participant: 19 - has been started and interested in lots: [1, 3, 4, 8, 9]
07.02.2016 19:13:55 [Thread-26] INFO  by.seleznev.auction.entity.Participant  - Participant: 16 - has been started and interested in lots: [2, 4, 6, 8, 10]
07.02.2016 19:13:55 [Thread-28] INFO  by.seleznev.auction.entity.Participant  - Participant: 18 - has been started and interested in lots: [1, 2, 4, 5, 9, 10]
07.02.2016 19:13:55 [Thread-12] INFO  by.seleznev.auction.entity.Participant  - Participant: 2 - has been started and interested in lots: [2, 3, 5, 6, 7, 8]
07.02.2016 19:13:55 [Thread-20] INFO  by.seleznev.auction.entity.Participant  - Participant: 10 - has been started and interested in lots: [3, 5]
07.02.2016 19:13:55 [Thread-17] INFO  by.seleznev.auction.entity.Participant  - Participant: 7 - has been started and interested in lots: [2, 4, 7, 8, 9]
07.02.2016 19:13:55 [Thread-21] INFO  by.seleznev.auction.entity.Participant  - Participant: 11 - has been started and interested in lots: [6, 8]
07.02.2016 19:13:55 [Thread-24] INFO  by.seleznev.auction.entity.Participant  - Participant: 14 - has been started and interested in lots: [3, 4, 5, 7, 8, 10]
07.02.2016 19:13:55 [Thread-25] INFO  by.seleznev.auction.entity.Participant  - Participant: 15 - has been started and interested in lots: [1, 3, 6, 8]
07.02.2016 19:13:55 [Thread-13] INFO  by.seleznev.auction.entity.Participant  - Participant: 3 - has been started and interested in lots: [2, 5, 6, 8, 9, 10]
07.02.2016 19:13:55 [Thread-11] INFO  by.seleznev.auction.entity.Participant  - Participant: 1 - has been started and interested in lots: [3, 4, 6, 7, 8, 10]
07.02.2016 19:13:55 [Thread-30] INFO  by.seleznev.auction.entity.Participant  - Participant: 20 - has been started and interested in lots: [1, 2, 3, 4, 5, 7, 8]
07.02.2016 19:13:55 [Thread-11] INFO  by.seleznev.auction.entity.Participant  - Participant 1 isn't interested in lot
07.02.2016 19:13:55 [Thread-11] INFO  by.seleznev.auction.entity.Participant  - Participant 1 stop bidding and awaiting the results of the round
07.02.2016 19:13:55 [Thread-20] INFO  by.seleznev.auction.entity.Participant  - Participant 10 isn't interested in lot
07.02.2016 19:13:55 [Thread-20] INFO  by.seleznev.auction.entity.Participant  - Participant 10 stop bidding and awaiting the results of the round
07.02.2016 19:13:55 [Thread-21] INFO  by.seleznev.auction.entity.Participant  - Participant 11 isn't interested in lot
07.02.2016 19:13:55 [Thread-21] INFO  by.seleznev.auction.entity.Participant  - Participant 11 stop bidding and awaiting the results of the round
07.02.2016 19:13:55 [Thread-24] INFO  by.seleznev.auction.entity.Participant  - Participant 14 isn't interested in lot
07.02.2016 19:13:55 [Thread-24] INFO  by.seleznev.auction.entity.Participant  - Participant 14 stop bidding and awaiting the results of the round
07.02.2016 19:13:55 [Thread-25] INFO  by.seleznev.auction.entity.Participant  - Participant 15 isn't interested in lot
07.02.2016 19:13:55 [Thread-25] INFO  by.seleznev.auction.entity.Participant  - Participant 15 stop bidding and awaiting the results of the round
07.02.2016 19:13:55 [Thread-16] INFO  by.seleznev.auction.entity.Participant  - Participant 6 isn't interested in lot
07.02.2016 19:13:55 [Thread-16] INFO  by.seleznev.auction.entity.Participant  - Participant 6 stop bidding and awaiting the results of the round
07.02.2016 19:13:55 [Thread-12] INFO  by.seleznev.auction.entity.Participant  - Participant 2 isn't interested in lot
07.02.2016 19:13:55 [Thread-12] INFO  by.seleznev.auction.entity.Participant  - Participant 2 stop bidding and awaiting the results of the round
07.02.2016 19:13:55 [Thread-27] INFO  by.seleznev.auction.entity.Participant  - Participant 17 isn't interested in lot
07.02.2016 19:13:55 [Thread-27] INFO  by.seleznev.auction.entity.Participant  - Participant 17 stop bidding and awaiting the results of the round
07.02.2016 19:13:55 [Thread-19] INFO  by.seleznev.auction.entity.Participant  - Participant 9 isn't interested in lot
07.02.2016 19:13:55 [Thread-30] INFO  by.seleznev.auction.entity.Participant  - Participant 20 isn't interested in lot
07.02.2016 19:13:56 [Thread-30] INFO  by.seleznev.auction.entity.Participant  - Participant 20 stop bidding and awaiting the results of the round
07.02.2016 19:13:55 [Thread-26] INFO  by.seleznev.auction.entity.Participant  - Participant 16 isn't interested in lot
07.02.2016 19:13:56 [Thread-26] INFO  by.seleznev.auction.entity.Participant  - Participant 16 stop bidding and awaiting the results of the round
07.02.2016 19:13:55 [Thread-18] INFO  by.seleznev.auction.entity.Participant  - Participant 8 isn't interested in lot
07.02.2016 19:13:56 [Thread-18] INFO  by.seleznev.auction.entity.Participant  - Participant 8 stop bidding and awaiting the results of the round
07.02.2016 19:13:55 [Thread-14] INFO  by.seleznev.auction.entity.Participant  - Participant 4 isn't interested in lot
07.02.2016 19:13:56 [Thread-14] INFO  by.seleznev.auction.entity.Participant  - Participant 4 stop bidding and awaiting the results of the round
07.02.2016 19:13:56 [Thread-19] INFO  by.seleznev.auction.entity.Participant  - Participant 9 stop bidding and awaiting the results of the round
07.02.2016 19:13:59 [Thread-17] INFO  by.seleznev.auction.entity.Participant  - Participant 7 stop bidding and awaiting the results of the round
07.02.2016 19:13:59 [Thread-29] INFO  by.seleznev.auction.entity.Participant  - Participant 19 stop bidding and awaiting the results of the round
07.02.2016 19:14:00 [Thread-9] INFO  by.seleznev.auction.entity.RoundAuction  - Bidding time is over
07.02.2016 19:14:00 [Thread-28] INFO  by.seleznev.auction.entity.Participant  - Participant 18 stop bidding and awaiting the results of the round
07.02.2016 19:14:01 [Thread-13] INFO  by.seleznev.auction.entity.Participant  - Participant 3 stop bidding and awaiting the results of the round
07.02.2016 19:14:01 [Thread-15] INFO  by.seleznev.auction.entity.Participant  - Participant 5 stop bidding and awaiting the results of the round
07.02.2016 19:14:01 [Thread-22] INFO  by.seleznev.auction.entity.Participant  - Participant 12 stop bidding and awaiting the results of the round
07.02.2016 19:14:01 [Thread-23] INFO  by.seleznev.auction.entity.Participant  - Participant 13 stop bidding and awaiting the results of the round
07.02.2016 19:14:01 [Thread-23] INFO  by.seleznev.auction.report.ReportAuction  - Round 9: Participant 13 has won!
07.02.2016 19:14:01 [Thread-23] INFO  by.seleznev.auction.report.ReportAuction  - Round 9 finish
07.02.2016 19:14:01 [Thread-0] INFO  by.seleznev.auction.entity.Auction  - Round 10 start
07.02.2016 19:14:01 [Thread-27] INFO  by.seleznev.auction.entity.Participant  - Participant: 17 - has been started and interested in lots: [6]
07.02.2016 19:14:01 [Thread-12] INFO  by.seleznev.auction.entity.Participant  - Participant: 2 - has been started and interested in lots: [2, 3, 5, 6, 7, 8]
07.02.2016 19:14:01 [Thread-18] INFO  by.seleznev.auction.entity.Participant  - Participant: 8 - has been started and interested in lots: [3, 5, 10]
07.02.2016 19:14:01 [Thread-16] INFO  by.seleznev.auction.entity.Participant  - Participant: 6 - has been started and interested in lots: [1, 2, 3, 4, 5, 7, 10]
07.02.2016 19:14:01 [Thread-17] INFO  by.seleznev.auction.entity.Participant  - Participant: 7 - has been started and interested in lots: [2, 4, 7, 8, 9]
07.02.2016 19:14:01 [Thread-28] INFO  by.seleznev.auction.entity.Participant  - Participant: 18 - has been started and interested in lots: [1, 2, 4, 5, 9, 10]
07.02.2016 19:14:01 [Thread-22] INFO  by.seleznev.auction.entity.Participant  - Participant: 12 - has been started and interested in lots: [1, 2, 6, 7, 9]
07.02.2016 19:14:01 [Thread-25] INFO  by.seleznev.auction.entity.Participant  - Participant: 15 - has been started and interested in lots: [1, 3, 6, 8]
07.02.2016 19:14:01 [Thread-24] INFO  by.seleznev.auction.entity.Participant  - Participant: 14 - has been started and interested in lots: [3, 4, 5, 7, 8, 10]
07.02.2016 19:14:01 [Thread-21] INFO  by.seleznev.auction.entity.Participant  - Participant: 11 - has been started and interested in lots: [6, 8]
07.02.2016 19:14:01 [Thread-23] INFO  by.seleznev.auction.entity.Participant  - Participant: 13 - has been started and interested in lots: [9]
07.02.2016 19:14:01 [Thread-20] INFO  by.seleznev.auction.entity.Participant  - Participant: 10 - has been started and interested in lots: [3, 5]
07.02.2016 19:14:01 [Thread-11] INFO  by.seleznev.auction.entity.Participant  - Participant: 1 - has been started and interested in lots: [3, 4, 6, 7, 8, 10]
07.02.2016 19:14:01 [Thread-12] INFO  by.seleznev.auction.entity.Participant  - Participant 2 isn't interested in lot
07.02.2016 19:14:01 [Thread-12] INFO  by.seleznev.auction.entity.Participant  - Participant 2 stop bidding and awaiting the results of the round
07.02.2016 19:14:01 [Thread-15] INFO  by.seleznev.auction.entity.Participant  - Participant: 5 - has been started and interested in lots: [1, 3, 5, 8, 9, 10]
07.02.2016 19:14:01 [Thread-13] INFO  by.seleznev.auction.entity.Participant  - Participant: 3 - has been started and interested in lots: [2, 5, 6, 8, 9, 10]
07.02.2016 19:14:01 [Thread-29] INFO  by.seleznev.auction.entity.Participant  - Participant: 19 - has been started and interested in lots: [1, 3, 4, 8, 9]
07.02.2016 19:14:01 [Thread-19] INFO  by.seleznev.auction.entity.Participant  - Participant: 9 - has been started and interested in lots: [2, 6]
07.02.2016 19:14:01 [Thread-14] INFO  by.seleznev.auction.entity.Participant  - Participant: 4 - has been started and interested in lots: [7]
07.02.2016 19:14:01 [Thread-17] INFO  by.seleznev.auction.entity.Participant  - Participant 7 isn't interested in lot
07.02.2016 19:14:01 [Thread-17] INFO  by.seleznev.auction.entity.Participant  - Participant 7 stop bidding and awaiting the results of the round
07.02.2016 19:14:01 [Thread-20] INFO  by.seleznev.auction.entity.Participant  - Participant 10 isn't interested in lot
07.02.2016 19:14:01 [Thread-20] INFO  by.seleznev.auction.entity.Participant  - Participant 10 stop bidding and awaiting the results of the round
07.02.2016 19:14:01 [Thread-21] INFO  by.seleznev.auction.entity.Participant  - Participant 11 isn't interested in lot
07.02.2016 19:14:01 [Thread-21] INFO  by.seleznev.auction.entity.Participant  - Participant 11 stop bidding and awaiting the results of the round
07.02.2016 19:14:01 [Thread-25] INFO  by.seleznev.auction.entity.Participant  - Participant 15 isn't interested in lot
07.02.2016 19:14:01 [Thread-25] INFO  by.seleznev.auction.entity.Participant  - Participant 15 stop bidding and awaiting the results of the round
07.02.2016 19:14:01 [Thread-26] INFO  by.seleznev.auction.entity.Participant  - Participant: 16 - has been started and interested in lots: [2, 4, 6, 8, 10]
07.02.2016 19:14:01 [Thread-29] INFO  by.seleznev.auction.entity.Participant  - Participant 19 isn't interested in lot
07.02.2016 19:14:01 [Thread-29] INFO  by.seleznev.auction.entity.Participant  - Participant 19 stop bidding and awaiting the results of the round
07.02.2016 19:14:01 [Thread-14] INFO  by.seleznev.auction.entity.Participant  - Participant 4 isn't interested in lot
07.02.2016 19:14:01 [Thread-14] INFO  by.seleznev.auction.entity.Participant  - Participant 4 stop bidding and awaiting the results of the round
07.02.2016 19:14:01 [Thread-19] INFO  by.seleznev.auction.entity.Participant  - Participant 9 isn't interested in lot
07.02.2016 19:14:01 [Thread-19] INFO  by.seleznev.auction.entity.Participant  - Participant 9 stop bidding and awaiting the results of the round
07.02.2016 19:14:01 [Thread-22] INFO  by.seleznev.auction.entity.Participant  - Participant 12 isn't interested in lot
07.02.2016 19:14:01 [Thread-22] INFO  by.seleznev.auction.entity.Participant  - Participant 12 stop bidding and awaiting the results of the round
07.02.2016 19:14:01 [Thread-23] INFO  by.seleznev.auction.entity.Participant  - Participant 13 isn't interested in lot
07.02.2016 19:14:01 [Thread-23] INFO  by.seleznev.auction.entity.Participant  - Participant 13 stop bidding and awaiting the results of the round
07.02.2016 19:14:01 [Thread-30] INFO  by.seleznev.auction.entity.Participant  - Participant: 20 - has been started and interested in lots: [1, 2, 3, 4, 5, 7, 8]
07.02.2016 19:14:01 [Thread-27] INFO  by.seleznev.auction.entity.Participant  - Participant 17 isn't interested in lot
07.02.2016 19:14:01 [Thread-27] INFO  by.seleznev.auction.entity.Participant  - Participant 17 stop bidding and awaiting the results of the round
07.02.2016 19:14:01 [Thread-30] INFO  by.seleznev.auction.entity.Participant  - Participant 20 isn't interested in lot
07.02.2016 19:14:01 [Thread-30] INFO  by.seleznev.auction.entity.Participant  - Participant 20 stop bidding and awaiting the results of the round
07.02.2016 19:14:03 [Thread-18] INFO  by.seleznev.auction.entity.Participant  - Participant 8 stop bidding and awaiting the results of the round
07.02.2016 19:14:03 [Thread-26] INFO  by.seleznev.auction.entity.Participant  - Participant 16 stop bidding and awaiting the results of the round
07.02.2016 19:14:06 [Thread-10] INFO  by.seleznev.auction.entity.RoundAuction  - Bidding time is over
07.02.2016 19:14:06 [Thread-28] INFO  by.seleznev.auction.entity.Participant  - Participant 18 stop bidding and awaiting the results of the round
07.02.2016 19:14:07 [Thread-13] INFO  by.seleznev.auction.entity.Participant  - Participant 3 stop bidding and awaiting the results of the round
07.02.2016 19:14:07 [Thread-24] INFO  by.seleznev.auction.entity.Participant  - Participant 14 stop bidding and awaiting the results of the round
07.02.2016 19:14:07 [Thread-11] INFO  by.seleznev.auction.entity.Participant  - Participant 1 stop bidding and awaiting the results of the round
07.02.2016 19:14:07 [Thread-16] INFO  by.seleznev.auction.entity.Participant  - Participant 6 stop bidding and awaiting the results of the round
07.02.2016 19:14:07 [Thread-15] INFO  by.seleznev.auction.entity.Participant  - Participant 5 stop bidding and awaiting the results of the round
07.02.2016 19:14:07 [Thread-15] INFO  by.seleznev.auction.report.ReportAuction  - Round 10: Participant 5 has won!
07.02.2016 19:14:07 [Thread-15] INFO  by.seleznev.auction.report.ReportAuction  - Round 10 finish
